{
  "project_info": {
    "project_number": "386323758211",
    "project_id": "mink-list",
    "storage_bucket": "mink-list.appspot.com"
  },
  "client": [
    {
      "client_info": {
        "mobilesdk_app_id": "1:386323758211:android:9ca07a7e2b3502afd4afb6",
        "android_client_info": {
          "package_name": "com.example.minklist"
        }
      },
      "oauth_client": [],
      "api_key": [
        {
          "current_key": "AIzaSyA0BnP5JF59h9PR5eOaRGqst-ANCPgufNE"
        }
      ],
      "services": {
        "appinvite_service": {
          "other_platform_oauth_client": []
        }
      }
    }
  ],
  "configuration_version": "1"
}